^C:\USERS\AGGREY\DESKTOP\FOX VALLEY TECH COLLEGE\FALL 2020 FVTC\C++\WEEK 3\PLAYINGCARDS\PLAYINGCARDSUI\MAIN.CPP
/c /ZI /JMC /nologo /W3 /WX- /diagnostics:column /sdl /Od /D _DEBUG /D _CONSOLE /D _UNICODE /D UNICODE /Gm- /EHsc /RTC1 /MDd /GS /fp:precise /permissive- /Zc:wchar_t /Zc:forScope /Zc:inline /Fo"X64\DEBUG\\" /Fd"X64\DEBUG\VC142.PDB" /Gd /TP /FC C:\USERS\AGGREY\DESKTOP\FOX VALLEY TECH COLLEGE\FALL 2020 FVTC\C++\WEEK 3\PLAYINGCARDS\PLAYINGCARDSUI\MAIN.CPP
^C:\USERS\AGGREY\DESKTOP\FOX VALLEY TECH COLLEGE\FALL 2020 FVTC\C++\WEEK 3\PLAYINGCARDSDEMO\PLAYINGCARDSUI\MAIN.CPP
/c /ZI /JMC /nologo /W3 /WX- /diagnostics:column /sdl /Od /D _DEBUG /D _CONSOLE /D _UNICODE /D UNICODE /Gm- /EHsc /RTC1 /MDd /GS /fp:precise /permissive- /Zc:wchar_t /Zc:forScope /Zc:inline /Fo"X64\DEBUG\\" /Fd"X64\DEBUG\VC142.PDB" /Gd /TP /FC C:\USERS\AGGREY\DESKTOP\FOX VALLEY TECH COLLEGE\FALL 2020 FVTC\C++\WEEK 3\PLAYINGCARDSDEMO\PLAYINGCARDSUI\MAIN.CPP
